{
    "environment": "live",
    "bspotApiKey": "219300f07d762a2743947b51c75c8d03ffe641dbd1cda495b1fab38d32a02154",
    "authRedirect": "https://token.cashedarcade.com/219300f07d762a2743947b51c75c8d03ffe641dbd1cda495b1fab38d32a02154",
    "authEnvironment": "prod",
    "authGrant": "code",
    "sandboxMode": "false",
    "cashedHost": "http://cashedarcade.com/",
    "gaTrackingId": "UA-82659343-9",
    "assets": {
        "general": {
            "atlasJSONArray": [
                {
                    "name": "game/background_texture",
                    "assetUrl": "assets/game/background_texture.png",
                    "settingsUrl": "assets/game/background_texture.json"
                },
                {
                    "name": "game/reels_texture",
                    "assetUrl": "assets/game/background/reels_texture.jpg",
                    "settingsUrl": "assets/game/background/reels_texture.json"
                },
                {
                    "name": "game/buttons_texture",
                    "assetUrl": "assets/common/ui_buttons/buttons_texture.png",
                    "settingsUrl": "assets/common/ui_buttons/buttons_texture.json"
                },
                {
                    "name": "game/symbols_texture",
                    "assetUrl": "assets/game/symbols/symbol_texture.png",
                    "settingsUrl": "assets/game/symbols/symbol_texture.json"
                }
            ],
            "atlasJSONHash": [
                {
                    "name": "bigwin_sheet",
                    "assetUrl": "assets/common/bigwin/bigwin_sheet.png",
                    "settingsUrl": "assets/common/bigwin/bigwin_sheet.json"
                }
            ],
            "atlasXML": [
                {
                    "name": "common/page_indicator",
                    "assetUrl": "assets/common/page_indicator.png",
                    "settingsUrl": "assets/common/page_indicator.xml"
                },
                {
                    "name": "common/button_i",
                    "assetUrl": "assets/common/button_i.png",
                    "settingsUrl": "assets/common/button_i.xml"
                }
            ],
            "audio": [
                {
                    "name": "sfx/music_game",
                    "assetUrl": "assets/game/sfx/music.m4a"
                },
                {
                    "name": "sfx/music_freespins",
                    "assetUrl": "assets/game/sfx/music_freespins.mp3"
                },
                {
                    "name": "sfx/music_feature",
                    "assetUrl": "assets/game/sfx/music_feature.mp3"
                },
                {
                    "name": "sfx/click_spin",
                    "assetUrl": "assets/game/sfx/click_spin.m4a"
                },
                {
                    "name": "sfx/uiclick",
                    "assetUrl": "assets/common/sfx/ui_click.m4a"
                },
                {
                    "name": "sfx/reel_stop",
                    "assetUrl": "assets/common/sfx/reel_stop.m4a"
                },
                {
                    "name": "sfx/spinloop",
                    "assetUrl": "assets/common/sfx/reel_spin.m4a"
                },
                {
                    "name": "sfx/bar_increases",
                    "assetUrl": "assets/game/sfx/bar_increases.mp3"
                },
                {
                    "name": "sfx/symbol_hit",
                    "assetUrl": "assets/game/sfx/symbol_hit.mp3"
                },
                {
                    "name": "sfx/bar_filled",
                    "assetUrl": "assets/game/sfx/bar_filled.mp3"
                },
                {
                    "name": "sfx/gem_level_up",
                    "assetUrl": "assets/game/sfx/gem_level_up.mp3"
                },
                {
                    "name": "sfx/click_spin",
                    "assetUrl": "assets/game/sfx/click_spin.m4a"
                },
                {
                    "name": "sfx/free_spins_count_win",
                    "assetUrl": "assets/game/sfx/free_spins_count_win.m4a"
                },
                {
                    "name": "sfx/free_spin_animation",
                    "assetUrl": "assets/game/sfx/free_spin_animation.m4a"
                },
                {
                    "name": "sfx/anticipation_slowReel_freespins",
                    "assetUrl": "assets/game/sfx/anticipation_slowReel_freespins.m4a"
                },
                {
                    "name": "sfx/anticipation_slowReel",
                    "assetUrl": "assets/game/sfx/anticipation_slowReel.m4a"
                }
            ],
            "audioSprite": [
                {
                    "name": "sfx/commonSprite",
                    "assetUrl": "assets/common/sfx/sprite.m4a",
                    "settingsUrl": "assets/common/sfx/sprite.json"
                }
            ],
            "bitmapFont": [
                {
                    "name": "fonts/font_win",
                    "assetUrl": "assets/fonts/font_win.png",
                    "settingsUrl": "assets/fonts/font_win.fnt"
                },
                {
                    "name": "fonts/font_header",
                    "assetUrl": "assets/fonts/font_header.png",
                    "settingsUrl": "assets/fonts/font_header.fnt"
                },
                {
                    "name": "fonts/font_button",
                    "assetUrl": "assets/fonts/font_buttontext.png",
                    "settingsUrl": "assets/fonts/font_buttontext.fnt"
                },
                {
                    "name": "fonts/font_goldUI",
                    "assetUrl": "assets/common/fonts/font_goldUI.png",
                    "settingsUrl": "assets/common/fonts/font_goldUI.fnt"
                }
            ],
            "image": [
                {
                    "name": "bigwin/bg",
                    "assetUrl": "assets/game/bigwin/bigwin_bg.png"
                },
                {
                    "name": "bigwin/text_tier_1",
                    "assetUrl": "assets/game/bigwin/text_megawin.png"
                },
                {
                    "name": "bigwin/text_tier_2",
                    "assetUrl": "assets/game/bigwin/text_incredible.png"
                },
                {
                    "name": "bigwin/text_tier_3",
                    "assetUrl": "assets/game/bigwin/text_sensational.png"
                },
                {
                    "name": "game/coin_animation",
                    "assetUrl": "assets/game/coin.png"
                },
                {
                    "name": "common/bspot_logo",
                    "assetUrl": "assets/common/bspot_logo.png"
                },
                {
                    "name": "common/popup_panel",
                    "assetUrl": "assets/common/popup_panel.png"
                },
                {
                    "name": "common/level_up_dialog",
                    "assetUrl": "assets/common/level_up_dialog.png"
                }
            ]
        },
        "loading": {
            "bitmapFont": [
                {
                    "name": "fonts/font_standard",
                    "assetUrl": "assets/common/fonts/font_whiteUI.png",
                    "settingsUrl": "assets/common/fonts/font_whiteUI.fnt"
                }
            ],
            "image": [
                {
                    "name": "load/loading_image",
                    "assetUrl": "assets/common/load/loading_image_0.png"
                },
                {
                    "name": "load/loading_fill",
                    "assetUrl": "assets/common/load/loading_fill.png"
                },
                {
                    "name": "load/loading_bar_bg",
                    "assetUrl": "assets/common/load/loading_bar_bg.png"
                }
            ]
        },
        "minigame": {
            "atlasJSONHash": [
                {
                    "name": "minigame/texture",
                    "assetUrl": "assets/game/minigame/minigame_texture.png",
                    "settingsUrl": "assets/game/minigame/minigame_texture.json"
                }
            ],
            "image": [
                {
                    "name": "minigame/minigame_overlay",
                    "assetUrl": "assets/game/minigame/minigame_bg_overlay.jpg"
                }
            ],
            "audio": [
                {
                    "name": "sfx/spin_wheel",
                    "assetUrl": "assets/game/sfx/spin_wheel.mp3"
                },
                {
                    "name": "sfx/spin_wheel_win",
                    "assetUrl": "assets/game/sfx/spin_wheel_win.mp3"
                },
                {
                    "name": "sfx/music_feature",
                    "assetUrl": "assets/game/sfx/music_feature.mp3"
                }
            ]
        },
        "tutorial": {
            "image": [
                {
                    "name": "tutorial/page1",
                    "assetUrl": "assets/tutorial/page1.png"
                },
                {
                    "name": "tutorial/page2",
                    "assetUrl": "assets/tutorial/page2.png"
                },
                {
                    "name": "tutorial/page3",
                    "assetUrl": "assets/tutorial/page3.png"
                },
                {
                    "name": "tutorial/page4",
                    "assetUrl": "assets/tutorial/page4.png"
                },
                {
                    "name": "tutorial/page5",
                    "assetUrl": "assets/tutorial/page5.png"
                }
            ]
        },
        "build_specific_virtual": {
            "image": [
                {
                    "name": "virtual/big_win_dlg_image",
                    "assetUrl": "assets/common/bigwin/big_win_dlg_image.png"
                }
            ]
        }
    }
}